{
  "Order{orderID=0, client=Client{firstName=Stefan lastName=Andrisca email=stefanandrisca@gmail.com password=Stefan_28}, orderDate=2021-05-13T01:34:58.599416, totalPrice=1223.0}" : [ {
    "type" : "BaseProduct",
    "title" : "Barbecued Shrimp ",
    "rating" : 3.75,
    "calories" : 23,
    "protein" : 4.0,
    "fat" : 0.0,
    "sodium" : 205.0,
    "price" : 71.0
  }, {
    "type" : "BaseProduct",
    "title" : "Smoked Caviar and Hummus on Pita Toasts ",
    "rating" : 5.0,
    "calories" : 23,
    "protein" : 1.0,
    "fat" : 2.0,
    "sodium" : 49.0,
    "price" : 79.0
  }, {
    "type" : "CompositeProduct",
    "title" : "Whiskey Special",
    "rating" : 3.75,
    "calories" : 2145,
    "protein" : 65.0,
    "fat" : 104.0,
    "sodium" : 1667.0,
    "price" : 441.0,
    "menuItems" : [ {
      "type" : "BaseProduct",
      "title" : "Smoked Whiskey Wings ",
      "rating" : 5.0,
      "calories" : 422,
      "protein" : 33.0,
      "fat" : 25.0,
      "sodium" : 449.0,
      "price" : 17.0
    }, {
      "type" : "CompositeProduct",
      "title" : "Party Special",
      "rating" : 3.75,
      "calories" : 394,
      "protein" : 13.0,
      "fat" : 24.0,
      "sodium" : 606.0,
      "price" : 152.0,
      "menuItems" : [ {
        "type" : "BaseProduct",
        "title" : "Tea Cake Sandwich Cookies ",
        "rating" : 3.75,
        "calories" : 130,
        "protein" : 1.0,
        "fat" : 8.0,
        "sodium" : 38.0,
        "price" : 81.0
      }, {
        "type" : "BaseProduct",
        "title" : "Zucchini and Parmesan Skillet Cake ",
        "rating" : 3.125,
        "calories" : 127,
        "protein" : 7.0,
        "fat" : 10.0,
        "sodium" : 204.0,
        "price" : 42.0
      }, {
        "type" : "BaseProduct",
        "title" : "Corn Cakes ",
        "rating" : 4.375,
        "calories" : 137,
        "protein" : 5.0,
        "fat" : 6.0,
        "sodium" : 364.0,
        "price" : 29.0
      } ]
    }, {
      "type" : "BaseProduct",
      "title" : "Bittersweet Chocolate Irish Whiskey Cake ",
      "rating" : 4.375,
      "calories" : 369,
      "protein" : 9.0,
      "fat" : 28.0,
      "sodium" : 72.0,
      "price" : 70.0
    }, {
      "type" : "BaseProduct",
      "title" : "Whiskey Sour ",
      "rating" : 0.0,
      "calories" : 203,
      "protein" : 0.0,
      "fat" : 0.0,
      "sodium" : 13.0,
      "price" : 80.0
    }, {
      "type" : "BaseProduct",
      "title" : "Lemon-Whiskey Bundt Cake ",
      "rating" : 4.375,
      "calories" : 471,
      "protein" : 5.0,
      "fat" : 23.0,
      "sodium" : 467.0,
      "price" : 80.0
    }, {
      "type" : "BaseProduct",
      "title" : "Whiskey Flip ",
      "rating" : 5.0,
      "calories" : 286,
      "protein" : 5.0,
      "fat" : 4.0,
      "sodium" : 60.0,
      "price" : 42.0
    } ]
  }, {
    "type" : "CompositeProduct",
    "title" : "Whiskey Special",
    "rating" : 3.75,
    "calories" : 2145,
    "protein" : 65.0,
    "fat" : 104.0,
    "sodium" : 1667.0,
    "price" : 441.0,
    "menuItems" : [ {
      "type" : "BaseProduct",
      "title" : "Smoked Whiskey Wings ",
      "rating" : 5.0,
      "calories" : 422,
      "protein" : 33.0,
      "fat" : 25.0,
      "sodium" : 449.0,
      "price" : 17.0
    }, {
      "type" : "CompositeProduct",
      "title" : "Party Special",
      "rating" : 3.75,
      "calories" : 394,
      "protein" : 13.0,
      "fat" : 24.0,
      "sodium" : 606.0,
      "price" : 152.0,
      "menuItems" : [ {
        "type" : "BaseProduct",
        "title" : "Tea Cake Sandwich Cookies ",
        "rating" : 3.75,
        "calories" : 130,
        "protein" : 1.0,
        "fat" : 8.0,
        "sodium" : 38.0,
        "price" : 81.0
      }, {
        "type" : "BaseProduct",
        "title" : "Zucchini and Parmesan Skillet Cake ",
        "rating" : 3.125,
        "calories" : 127,
        "protein" : 7.0,
        "fat" : 10.0,
        "sodium" : 204.0,
        "price" : 42.0
      }, {
        "type" : "BaseProduct",
        "title" : "Corn Cakes ",
        "rating" : 4.375,
        "calories" : 137,
        "protein" : 5.0,
        "fat" : 6.0,
        "sodium" : 364.0,
        "price" : 29.0
      } ]
    }, {
      "type" : "BaseProduct",
      "title" : "Bittersweet Chocolate Irish Whiskey Cake ",
      "rating" : 4.375,
      "calories" : 369,
      "protein" : 9.0,
      "fat" : 28.0,
      "sodium" : 72.0,
      "price" : 70.0
    }, {
      "type" : "BaseProduct",
      "title" : "Whiskey Sour ",
      "rating" : 0.0,
      "calories" : 203,
      "protein" : 0.0,
      "fat" : 0.0,
      "sodium" : 13.0,
      "price" : 80.0
    }, {
      "type" : "BaseProduct",
      "title" : "Lemon-Whiskey Bundt Cake ",
      "rating" : 4.375,
      "calories" : 471,
      "protein" : 5.0,
      "fat" : 23.0,
      "sodium" : 467.0,
      "price" : 80.0
    }, {
      "type" : "BaseProduct",
      "title" : "Whiskey Flip ",
      "rating" : 5.0,
      "calories" : 286,
      "protein" : 5.0,
      "fat" : 4.0,
      "sodium" : 60.0,
      "price" : 42.0
    } ]
  }, {
    "type" : "CompositeProduct",
    "title" : "Party Special",
    "rating" : 3.75,
    "calories" : 394,
    "protein" : 13.0,
    "fat" : 24.0,
    "sodium" : 606.0,
    "price" : 152.0,
    "menuItems" : [ {
      "type" : "BaseProduct",
      "title" : "Tea Cake Sandwich Cookies ",
      "rating" : 3.75,
      "calories" : 130,
      "protein" : 1.0,
      "fat" : 8.0,
      "sodium" : 38.0,
      "price" : 81.0
    }, {
      "type" : "BaseProduct",
      "title" : "Zucchini and Parmesan Skillet Cake ",
      "rating" : 3.125,
      "calories" : 127,
      "protein" : 7.0,
      "fat" : 10.0,
      "sodium" : 204.0,
      "price" : 42.0
    }, {
      "type" : "BaseProduct",
      "title" : "Corn Cakes ",
      "rating" : 4.375,
      "calories" : 137,
      "protein" : 5.0,
      "fat" : 6.0,
      "sodium" : 364.0,
      "price" : 29.0
    } ]
  }, {
    "type" : "BaseProduct",
    "title" : "Mashed Potatoes",
    "rating" : 2.0,
    "calories" : 250,
    "protein" : 1.0,
    "fat" : 2.0,
    "sodium" : 2.0,
    "price" : 5.0
  }, {
    "type" : "BaseProduct",
    "title" : "Deep-Dish Wild Blueberry Pie ",
    "rating" : 4.375,
    "calories" : 13062948,
    "protein" : 87188.0,
    "fat" : 747374.0,
    "sodium" : 1.200581E7,
    "price" : 34.0
  } ],
  "Order{orderID=1, client=Client{firstName=Anastasia-Oana lastName=Streng email=sia_anastasia@yahoo.com password=Siasia_31}, orderDate=2021-05-13T01:35:53.296306100, totalPrice=1053.0}" : [ {
    "type" : "BaseProduct",
    "title" : "Barbecued Shrimp ",
    "rating" : 3.75,
    "calories" : 23,
    "protein" : 4.0,
    "fat" : 0.0,
    "sodium" : 205.0,
    "price" : 71.0
  }, {
    "type" : "BaseProduct",
    "title" : "Smoked Caviar and Hummus on Pita Toasts ",
    "rating" : 5.0,
    "calories" : 23,
    "protein" : 1.0,
    "fat" : 2.0,
    "sodium" : 49.0,
    "price" : 79.0
  }, {
    "type" : "BaseProduct",
    "title" : "Ethiopian Spice Tea ",
    "rating" : 5.0,
    "calories" : 23,
    "protein" : 1.0,
    "fat" : 0.0,
    "sodium" : 13.0,
    "price" : 49.0
  }, {
    "type" : "BaseProduct",
    "title" : "Pearl Couscous with Olives and Roasted Tomatoes ",
    "rating" : 4.375,
    "calories" : 442,
    "protein" : 13.0,
    "fat" : 15.0,
    "sodium" : 640.0,
    "price" : 47.0
  }, {
    "type" : "BaseProduct",
    "title" : "Pimiento BLTs ",
    "rating" : 0.0,
    "calories" : 442,
    "protein" : 15.0,
    "fat" : 29.0,
    "sodium" : 695.0,
    "price" : 55.0
  }, {
    "type" : "BaseProduct",
    "title" : "Scallop Gratins with Garlic-Lemon Butter ",
    "rating" : 3.75,
    "calories" : 442,
    "protein" : 27.0,
    "fat" : 18.0,
    "sodium" : 1080.0,
    "price" : 21.0
  }, {
    "type" : "BaseProduct",
    "title" : "Pumpkin Seed Pesto ",
    "rating" : 3.75,
    "calories" : 442,
    "protein" : 16.0,
    "fat" : 42.0,
    "sodium" : 12.0,
    "price" : 31.0
  }, {
    "type" : "BaseProduct",
    "title" : "Garlic and Herb Spatchcock Grilled Chicken ",
    "rating" : 4.375,
    "calories" : 1273,
    "protein" : 40.0,
    "fat" : 77.0,
    "sodium" : 658.0,
    "price" : 83.0
  }, {
    "type" : "BaseProduct",
    "title" : "Spaghetti Carbonara with Pork Belly and Fresh Peas ",
    "rating" : 4.375,
    "calories" : 1273,
    "protein" : 129.0,
    "fat" : 38.0,
    "sodium" : 5915.0,
    "price" : 70.0
  }, {
    "type" : "BaseProduct",
    "title" : "Bistro Steak with Buttermilk Onion Rings ",
    "rating" : 4.375,
    "calories" : 1272,
    "protein" : 83.0,
    "fat" : 82.0,
    "sodium" : 393.0,
    "price" : 28.0
  }, {
    "type" : "BaseProduct",
    "title" : "Sweet Potato and Roasted Mushroom Stuffing ",
    "rating" : 0.0,
    "calories" : 1272,
    "protein" : 16.0,
    "fat" : 81.0,
    "sodium" : 429.0,
    "price" : 16.0
  }, {
    "type" : "BaseProduct",
    "title" : "Lebanese Lamb and Bean Stew ",
    "rating" : 3.75,
    "calories" : 1290,
    "protein" : 76.0,
    "fat" : 97.0,
    "sodium" : 1192.0,
    "price" : 76.0
  }, {
    "type" : "BaseProduct",
    "title" : "Pancetta-Wrapped Chicken with Cabbage ",
    "rating" : 5.0,
    "calories" : 1290,
    "protein" : 162.0,
    "fat" : 63.0,
    "sodium" : 1190.0,
    "price" : 82.0
  }, {
    "type" : "BaseProduct",
    "title" : "Porcini Mushroom Turkey with Mushroom Gravy ",
    "rating" : 4.375,
    "calories" : 1290,
    "protein" : 167.0,
    "fat" : 61.0,
    "sodium" : 1014.0,
    "price" : 57.0
  }, {
    "type" : "BaseProduct",
    "title" : "Peas with Baked Ricotta and Bread Crumbs ",
    "rating" : 4.375,
    "calories" : 1287,
    "protein" : 47.0,
    "fat" : 69.0,
    "sodium" : 2669.0,
    "price" : 90.0
  }, {
    "type" : "BaseProduct",
    "title" : "Herb-Brined Turkey with Pear Gravy ",
    "rating" : 4.375,
    "calories" : 1291,
    "protein" : 79.0,
    "fat" : 89.0,
    "sodium" : 884.0,
    "price" : 36.0
  }, {
    "type" : "BaseProduct",
    "title" : "\"\"\"Redeye\"\" Braised Lamb Shanks and Beans \"",
    "rating" : 4.375,
    "calories" : 1291,
    "protein" : 79.0,
    "fat" : 89.0,
    "sodium" : 884.0,
    "price" : 23.0
  }, {
    "type" : "BaseProduct",
    "title" : "Porcini Mushroom Turkey with Mushroom Gravy ",
    "rating" : 4.375,
    "calories" : 1290,
    "protein" : 167.0,
    "fat" : 61.0,
    "sodium" : 1014.0,
    "price" : 57.0
  }, {
    "type" : "BaseProduct",
    "title" : "Pancetta-Wrapped Chicken with Cabbage ",
    "rating" : 5.0,
    "calories" : 1290,
    "protein" : 162.0,
    "fat" : 63.0,
    "sodium" : 1190.0,
    "price" : 82.0
  } ],
  "Order{orderID=2, client=Client{firstName=Stefan lastName=Andrisca email=stefanandrisca@gmail.com password=Stefan_28}, orderDate=2021-05-13T01:36:38.794467, totalPrice=2027.0}" : [ {
    "type" : "BaseProduct",
    "title" : "Ethiopian Spice Tea ",
    "rating" : 5.0,
    "calories" : 23,
    "protein" : 1.0,
    "fat" : 0.0,
    "sodium" : 13.0,
    "price" : 49.0
  }, {
    "type" : "BaseProduct",
    "title" : "Ginger Tea ",
    "rating" : 4.375,
    "calories" : 27,
    "protein" : 0.0,
    "fat" : 0.0,
    "sodium" : 17.0,
    "price" : 81.0
  }, {
    "type" : "BaseProduct",
    "title" : "Cucumber Mint Tea Sandwiches ",
    "rating" : 4.375,
    "calories" : 59,
    "protein" : 2.0,
    "fat" : 3.0,
    "sodium" : 71.0,
    "price" : 31.0
  }, {
    "type" : "BaseProduct",
    "title" : "Herbed Vidalia Onion Tea Sandwiches ",
    "rating" : 3.75,
    "calories" : 67,
    "protein" : 2.0,
    "fat" : 3.0,
    "sodium" : 94.0,
    "price" : 95.0
  }, {
    "type" : "BaseProduct",
    "title" : "Sweet Tea with Vodka and Lemonade ",
    "rating" : 4.375,
    "calories" : 68,
    "protein" : 1.0,
    "fat" : 0.0,
    "sodium" : 10.0,
    "price" : 18.0
  }, {
    "type" : "BaseProduct",
    "title" : "Fruity Iced Tea ",
    "rating" : 2.5,
    "calories" : 70,
    "protein" : 0.0,
    "fat" : 0.0,
    "sodium" : 17.0,
    "price" : 49.0
  }, {
    "type" : "BaseProduct",
    "title" : "Mint Tea ",
    "rating" : 0.0,
    "calories" : 74,
    "protein" : 0.0,
    "fat" : 0.0,
    "sodium" : 9.0,
    "price" : 46.0
  }, {
    "type" : "BaseProduct",
    "title" : "Minted Radish Tea Sandwiches with Lemon Mayonnaise ",
    "rating" : 4.375,
    "calories" : 75,
    "protein" : 0.0,
    "fat" : 8.0,
    "sodium" : 71.0,
    "price" : 27.0
  }, {
    "type" : "BaseProduct",
    "title" : "Deviled Ham and Pecan Tea Sandwiches ",
    "rating" : 4.375,
    "calories" : 76,
    "protein" : 3.0,
    "fat" : 4.0,
    "sodium" : 329.0,
    "price" : 84.0
  }, {
    "type" : "BaseProduct",
    "title" : "Marmalade-Glazed Ham with Sweet Orange-Tea Sauce ",
    "rating" : 4.375,
    "calories" : 1179,
    "protein" : 85.0,
    "fat" : 69.0,
    "sodium" : 720.0,
    "price" : 16.0
  }, {
    "type" : "BaseProduct",
    "title" : "Tea-Smoked Chicken ",
    "rating" : 3.75,
    "calories" : 814,
    "protein" : 8.0,
    "fat" : 46.0,
    "sodium" : 430.0,
    "price" : 55.0
  }, {
    "type" : "BaseProduct",
    "title" : "Cranberry and Pumpkin Pie Spice Tea Cake ",
    "rating" : 4.375,
    "calories" : 610,
    "protein" : 49.0,
    "fat" : 43.0,
    "sodium" : 891.0,
    "price" : 40.0
  }, {
    "type" : "BaseProduct",
    "title" : "Lemon Tea Cake with Blueberry-Red Wine Sauce ",
    "rating" : 4.375,
    "calories" : 565,
    "protein" : 40.0,
    "fat" : 27.0,
    "sodium" : 963.0,
    "price" : 14.0
  }, {
    "type" : "BaseProduct",
    "title" : "Pork Chop Milanese with Arugula and Teardrop Tomatoes ",
    "rating" : 3.75,
    "calories" : 497,
    "protein" : 20.0,
    "fat" : 36.0,
    "sodium" : 294.0,
    "price" : 29.0
  }, {
    "type" : "BaseProduct",
    "title" : "Maple Tea Scones ",
    "rating" : 4.375,
    "calories" : 486,
    "protein" : 6.0,
    "fat" : 22.0,
    "sodium" : 320.0,
    "price" : 44.0
  }, {
    "type" : "BaseProduct",
    "title" : "Scallop Tea Rice ",
    "rating" : 3.75,
    "calories" : 451,
    "protein" : 29.0,
    "fat" : 7.0,
    "sodium" : 2494.0,
    "price" : 16.0
  }, {
    "type" : "BaseProduct",
    "title" : "Thai Tea Pudding with Lime Caramel and Candied Cashews ",
    "rating" : 4.375,
    "calories" : 407,
    "protein" : 8.0,
    "fat" : 21.0,
    "sodium" : 259.0,
    "price" : 54.0
  }, {
    "type" : "BaseProduct",
    "title" : "Grilled Tea-Brined Turkey with Tea-and-Lemon Gravy ",
    "rating" : 3.125,
    "calories" : 1599,
    "protein" : 93.0,
    "fat" : 124.0,
    "sodium" : 1445.0,
    "price" : 67.0
  }, {
    "type" : "BaseProduct",
    "title" : "Marmalade-Glazed Ham with Sweet Orange-Tea Sauce ",
    "rating" : 4.375,
    "calories" : 1179,
    "protein" : 85.0,
    "fat" : 69.0,
    "sodium" : 720.0,
    "price" : 16.0
  }, {
    "type" : "BaseProduct",
    "title" : "Tea-Smoked Chicken ",
    "rating" : 3.75,
    "calories" : 814,
    "protein" : 8.0,
    "fat" : 46.0,
    "sodium" : 430.0,
    "price" : 55.0
  }, {
    "type" : "BaseProduct",
    "title" : "Cranberry and Pumpkin Pie Spice Tea Cake ",
    "rating" : 4.375,
    "calories" : 610,
    "protein" : 49.0,
    "fat" : 43.0,
    "sodium" : 891.0,
    "price" : 40.0
  }, {
    "type" : "BaseProduct",
    "title" : "Pork Chop Milanese with Arugula and Teardrop Tomatoes ",
    "rating" : 3.75,
    "calories" : 497,
    "protein" : 20.0,
    "fat" : 36.0,
    "sodium" : 294.0,
    "price" : 29.0
  }, {
    "type" : "BaseProduct",
    "title" : "Maple Tea Scones ",
    "rating" : 4.375,
    "calories" : 486,
    "protein" : 6.0,
    "fat" : 22.0,
    "sodium" : 320.0,
    "price" : 44.0
  }, {
    "type" : "BaseProduct",
    "title" : "Scallop Tea Rice ",
    "rating" : 3.75,
    "calories" : 451,
    "protein" : 29.0,
    "fat" : 7.0,
    "sodium" : 2494.0,
    "price" : 16.0
  }, {
    "type" : "BaseProduct",
    "title" : "Thai Tea Pudding with Lime Caramel and Candied Cashews ",
    "rating" : 4.375,
    "calories" : 407,
    "protein" : 8.0,
    "fat" : 21.0,
    "sodium" : 259.0,
    "price" : 54.0
  }, {
    "type" : "BaseProduct",
    "title" : "Cold Brew Plum Iced Tea ",
    "rating" : 5.0,
    "calories" : 128,
    "protein" : 1.0,
    "fat" : 0.0,
    "sodium" : 1.0,
    "price" : 62.0
  }, {
    "type" : "BaseProduct",
    "title" : "Spiced Milk Tea (Masala Chai) ",
    "rating" : 4.375,
    "calories" : 125,
    "protein" : 4.0,
    "fat" : 4.0,
    "sodium" : 61.0,
    "price" : 61.0
  }, {
    "type" : "BaseProduct",
    "title" : "Long Island Iced Tea ",
    "rating" : 3.75,
    "calories" : 124,
    "protein" : 0.0,
    "fat" : 0.0,
    "sodium" : 8.0,
    "price" : 20.0
  }, {
    "type" : "BaseProduct",
    "title" : "Moroccan Tea Biscuits ",
    "rating" : 5.0,
    "calories" : 91,
    "protein" : 2.0,
    "fat" : 4.0,
    "sodium" : 35.0,
    "price" : 83.0
  }, {
    "type" : "BaseProduct",
    "title" : "Golden Milk Turmeric Tea ",
    "rating" : 5.0,
    "calories" : 88,
    "protein" : 2.0,
    "fat" : 5.0,
    "sodium" : 27.0,
    "price" : 41.0
  }, {
    "type" : "BaseProduct",
    "title" : "Moroccan Tea Biscuits ",
    "rating" : 5.0,
    "calories" : 91,
    "protein" : 2.0,
    "fat" : 4.0,
    "sodium" : 35.0,
    "price" : 83.0
  }, {
    "type" : "BaseProduct",
    "title" : "Long Island Iced Tea ",
    "rating" : 3.75,
    "calories" : 124,
    "protein" : 0.0,
    "fat" : 0.0,
    "sodium" : 8.0,
    "price" : 20.0
  }, {
    "type" : "BaseProduct",
    "title" : "Spiced Milk Tea (Masala Chai) ",
    "rating" : 4.375,
    "calories" : 125,
    "protein" : 4.0,
    "fat" : 4.0,
    "sodium" : 61.0,
    "price" : 61.0
  }, {
    "type" : "BaseProduct",
    "title" : "Cold Brew Plum Iced Tea ",
    "rating" : 5.0,
    "calories" : 128,
    "protein" : 1.0,
    "fat" : 0.0,
    "sodium" : 1.0,
    "price" : 62.0
  }, {
    "type" : "BaseProduct",
    "title" : "Tea Cake Sandwich Cookies ",
    "rating" : 3.75,
    "calories" : 130,
    "protein" : 1.0,
    "fat" : 8.0,
    "sodium" : 38.0,
    "price" : 81.0
  }, {
    "type" : "BaseProduct",
    "title" : "Gin and Mint Tea Cocktail ",
    "rating" : 0.0,
    "calories" : 132,
    "protein" : 0.0,
    "fat" : 0.0,
    "sodium" : 3.0,
    "price" : 45.0
  }, {
    "type" : "BaseProduct",
    "title" : "Spiced Rum and Tea Punch ",
    "rating" : 4.375,
    "calories" : 132,
    "protein" : 0.0,
    "fat" : 1.0,
    "sodium" : 12.0,
    "price" : 48.0
  }, {
    "type" : "BaseProduct",
    "title" : "Tea-and-Lemon Gravy ",
    "rating" : 3.125,
    "calories" : 133,
    "protein" : 23.0,
    "fat" : 4.0,
    "sodium" : 95.0,
    "price" : 94.0
  }, {
    "type" : "BaseProduct",
    "title" : "Fruity Iced Tea ",
    "rating" : 2.5,
    "calories" : 70,
    "protein" : 0.0,
    "fat" : 0.0,
    "sodium" : 17.0,
    "price" : 49.0
  }, {
    "type" : "BaseProduct",
    "title" : "Sweet Tea with Vodka and Lemonade ",
    "rating" : 4.375,
    "calories" : 68,
    "protein" : 1.0,
    "fat" : 0.0,
    "sodium" : 10.0,
    "price" : 18.0
  }, {
    "type" : "BaseProduct",
    "title" : "Ginger Tea ",
    "rating" : 4.375,
    "calories" : 27,
    "protein" : 0.0,
    "fat" : 0.0,
    "sodium" : 17.0,
    "price" : 81.0
  }, {
    "type" : "BaseProduct",
    "title" : "Cucumber Mint Tea Sandwiches ",
    "rating" : 4.375,
    "calories" : 59,
    "protein" : 2.0,
    "fat" : 3.0,
    "sodium" : 71.0,
    "price" : 31.0
  }, {
    "type" : "BaseProduct",
    "title" : "Sweet Tea with Vodka and Lemonade ",
    "rating" : 4.375,
    "calories" : 68,
    "protein" : 1.0,
    "fat" : 0.0,
    "sodium" : 10.0,
    "price" : 18.0
  } ],
  "Order{orderID=3, client=Client{firstName=Stefan lastName=Andrisca email=stefanandrisca@gmail.com password=Stefan_28}, orderDate=2021-05-13T01:36:55.970013500, totalPrice=2629.0}" : [ {
    "type" : "BaseProduct",
    "title" : "Ethiopian Spice Tea ",
    "rating" : 5.0,
    "calories" : 23,
    "protein" : 1.0,
    "fat" : 0.0,
    "sodium" : 13.0,
    "price" : 49.0
  }, {
    "type" : "BaseProduct",
    "title" : "Smoked Caviar and Hummus on Pita Toasts ",
    "rating" : 5.0,
    "calories" : 23,
    "protein" : 1.0,
    "fat" : 2.0,
    "sodium" : 49.0,
    "price" : 79.0
  }, {
    "type" : "BaseProduct",
    "title" : "Spicy Pickled Shallots ",
    "rating" : 0.0,
    "calories" : 23,
    "protein" : 1.0,
    "fat" : 0.0,
    "sodium" : 162.0,
    "price" : 78.0
  }, {
    "type" : "BaseProduct",
    "title" : "Quick & Spicy Asian Pickles ",
    "rating" : 5.0,
    "calories" : 23,
    "protein" : 1.0,
    "fat" : 0.0,
    "sodium" : 128.0,
    "price" : 48.0
  }, {
    "type" : "BaseProduct",
    "title" : "Fresh Corn Tortillas ",
    "rating" : 3.75,
    "calories" : 23,
    "protein" : 1.0,
    "fat" : 2.0,
    "sodium" : 61.0,
    "price" : 79.0
  }, {
    "type" : "BaseProduct",
    "title" : "Linguine with White Clam Sauce ",
    "rating" : 4.375,
    "calories" : 810,
    "protein" : 52.0,
    "fat" : 39.0,
    "sodium" : 1718.0,
    "price" : 40.0
  }, {
    "type" : "BaseProduct",
    "title" : "Hainanese Chicken Rice ",
    "rating" : 4.375,
    "calories" : 810,
    "protein" : 37.0,
    "fat" : 44.0,
    "sodium" : 1182.0,
    "price" : 51.0
  }, {
    "type" : "CompositeProduct",
    "title" : "Whiskey Special",
    "rating" : 3.75,
    "calories" : 2145,
    "protein" : 65.0,
    "fat" : 104.0,
    "sodium" : 1667.0,
    "price" : 441.0,
    "menuItems" : [ {
      "type" : "BaseProduct",
      "title" : "Smoked Whiskey Wings ",
      "rating" : 5.0,
      "calories" : 422,
      "protein" : 33.0,
      "fat" : 25.0,
      "sodium" : 449.0,
      "price" : 17.0
    }, {
      "type" : "CompositeProduct",
      "title" : "Party Special",
      "rating" : 3.75,
      "calories" : 394,
      "protein" : 13.0,
      "fat" : 24.0,
      "sodium" : 606.0,
      "price" : 152.0,
      "menuItems" : [ {
        "type" : "BaseProduct",
        "title" : "Tea Cake Sandwich Cookies ",
        "rating" : 3.75,
        "calories" : 130,
        "protein" : 1.0,
        "fat" : 8.0,
        "sodium" : 38.0,
        "price" : 81.0
      }, {
        "type" : "BaseProduct",
        "title" : "Zucchini and Parmesan Skillet Cake ",
        "rating" : 3.125,
        "calories" : 127,
        "protein" : 7.0,
        "fat" : 10.0,
        "sodium" : 204.0,
        "price" : 42.0
      }, {
        "type" : "BaseProduct",
        "title" : "Corn Cakes ",
        "rating" : 4.375,
        "calories" : 137,
        "protein" : 5.0,
        "fat" : 6.0,
        "sodium" : 364.0,
        "price" : 29.0
      } ]
    }, {
      "type" : "BaseProduct",
      "title" : "Bittersweet Chocolate Irish Whiskey Cake ",
      "rating" : 4.375,
      "calories" : 369,
      "protein" : 9.0,
      "fat" : 28.0,
      "sodium" : 72.0,
      "price" : 70.0
    }, {
      "type" : "BaseProduct",
      "title" : "Whiskey Sour ",
      "rating" : 0.0,
      "calories" : 203,
      "protein" : 0.0,
      "fat" : 0.0,
      "sodium" : 13.0,
      "price" : 80.0
    }, {
      "type" : "BaseProduct",
      "title" : "Lemon-Whiskey Bundt Cake ",
      "rating" : 4.375,
      "calories" : 471,
      "protein" : 5.0,
      "fat" : 23.0,
      "sodium" : 467.0,
      "price" : 80.0
    }, {
      "type" : "BaseProduct",
      "title" : "Whiskey Flip ",
      "rating" : 5.0,
      "calories" : 286,
      "protein" : 5.0,
      "fat" : 4.0,
      "sodium" : 60.0,
      "price" : 42.0
    } ]
  }, {
    "type" : "CompositeProduct",
    "title" : "Whiskey Special",
    "rating" : 3.75,
    "calories" : 2145,
    "protein" : 65.0,
    "fat" : 104.0,
    "sodium" : 1667.0,
    "price" : 441.0,
    "menuItems" : [ {
      "type" : "BaseProduct",
      "title" : "Smoked Whiskey Wings ",
      "rating" : 5.0,
      "calories" : 422,
      "protein" : 33.0,
      "fat" : 25.0,
      "sodium" : 449.0,
      "price" : 17.0
    }, {
      "type" : "CompositeProduct",
      "title" : "Party Special",
      "rating" : 3.75,
      "calories" : 394,
      "protein" : 13.0,
      "fat" : 24.0,
      "sodium" : 606.0,
      "price" : 152.0,
      "menuItems" : [ {
        "type" : "BaseProduct",
        "title" : "Tea Cake Sandwich Cookies ",
        "rating" : 3.75,
        "calories" : 130,
        "protein" : 1.0,
        "fat" : 8.0,
        "sodium" : 38.0,
        "price" : 81.0
      }, {
        "type" : "BaseProduct",
        "title" : "Zucchini and Parmesan Skillet Cake ",
        "rating" : 3.125,
        "calories" : 127,
        "protein" : 7.0,
        "fat" : 10.0,
        "sodium" : 204.0,
        "price" : 42.0
      }, {
        "type" : "BaseProduct",
        "title" : "Corn Cakes ",
        "rating" : 4.375,
        "calories" : 137,
        "protein" : 5.0,
        "fat" : 6.0,
        "sodium" : 364.0,
        "price" : 29.0
      } ]
    }, {
      "type" : "BaseProduct",
      "title" : "Bittersweet Chocolate Irish Whiskey Cake ",
      "rating" : 4.375,
      "calories" : 369,
      "protein" : 9.0,
      "fat" : 28.0,
      "sodium" : 72.0,
      "price" : 70.0
    }, {
      "type" : "BaseProduct",
      "title" : "Whiskey Sour ",
      "rating" : 0.0,
      "calories" : 203,
      "protein" : 0.0,
      "fat" : 0.0,
      "sodium" : 13.0,
      "price" : 80.0
    }, {
      "type" : "BaseProduct",
      "title" : "Lemon-Whiskey Bundt Cake ",
      "rating" : 4.375,
      "calories" : 471,
      "protein" : 5.0,
      "fat" : 23.0,
      "sodium" : 467.0,
      "price" : 80.0
    }, {
      "type" : "BaseProduct",
      "title" : "Whiskey Flip ",
      "rating" : 5.0,
      "calories" : 286,
      "protein" : 5.0,
      "fat" : 4.0,
      "sodium" : 60.0,
      "price" : 42.0
    } ]
  }, {
    "type" : "CompositeProduct",
    "title" : "Whiskey Special",
    "rating" : 3.75,
    "calories" : 2145,
    "protein" : 65.0,
    "fat" : 104.0,
    "sodium" : 1667.0,
    "price" : 441.0,
    "menuItems" : [ {
      "type" : "BaseProduct",
      "title" : "Smoked Whiskey Wings ",
      "rating" : 5.0,
      "calories" : 422,
      "protein" : 33.0,
      "fat" : 25.0,
      "sodium" : 449.0,
      "price" : 17.0
    }, {
      "type" : "CompositeProduct",
      "title" : "Party Special",
      "rating" : 3.75,
      "calories" : 394,
      "protein" : 13.0,
      "fat" : 24.0,
      "sodium" : 606.0,
      "price" : 152.0,
      "menuItems" : [ {
        "type" : "BaseProduct",
        "title" : "Tea Cake Sandwich Cookies ",
        "rating" : 3.75,
        "calories" : 130,
        "protein" : 1.0,
        "fat" : 8.0,
        "sodium" : 38.0,
        "price" : 81.0
      }, {
        "type" : "BaseProduct",
        "title" : "Zucchini and Parmesan Skillet Cake ",
        "rating" : 3.125,
        "calories" : 127,
        "protein" : 7.0,
        "fat" : 10.0,
        "sodium" : 204.0,
        "price" : 42.0
      }, {
        "type" : "BaseProduct",
        "title" : "Corn Cakes ",
        "rating" : 4.375,
        "calories" : 137,
        "protein" : 5.0,
        "fat" : 6.0,
        "sodium" : 364.0,
        "price" : 29.0
      } ]
    }, {
      "type" : "BaseProduct",
      "title" : "Bittersweet Chocolate Irish Whiskey Cake ",
      "rating" : 4.375,
      "calories" : 369,
      "protein" : 9.0,
      "fat" : 28.0,
      "sodium" : 72.0,
      "price" : 70.0
    }, {
      "type" : "BaseProduct",
      "title" : "Whiskey Sour ",
      "rating" : 0.0,
      "calories" : 203,
      "protein" : 0.0,
      "fat" : 0.0,
      "sodium" : 13.0,
      "price" : 80.0
    }, {
      "type" : "BaseProduct",
      "title" : "Lemon-Whiskey Bundt Cake ",
      "rating" : 4.375,
      "calories" : 471,
      "protein" : 5.0,
      "fat" : 23.0,
      "sodium" : 467.0,
      "price" : 80.0
    }, {
      "type" : "BaseProduct",
      "title" : "Whiskey Flip ",
      "rating" : 5.0,
      "calories" : 286,
      "protein" : 5.0,
      "fat" : 4.0,
      "sodium" : 60.0,
      "price" : 42.0
    } ]
  }, {
    "type" : "CompositeProduct",
    "title" : "Whiskey Special",
    "rating" : 3.75,
    "calories" : 2145,
    "protein" : 65.0,
    "fat" : 104.0,
    "sodium" : 1667.0,
    "price" : 441.0,
    "menuItems" : [ {
      "type" : "BaseProduct",
      "title" : "Smoked Whiskey Wings ",
      "rating" : 5.0,
      "calories" : 422,
      "protein" : 33.0,
      "fat" : 25.0,
      "sodium" : 449.0,
      "price" : 17.0
    }, {
      "type" : "CompositeProduct",
      "title" : "Party Special",
      "rating" : 3.75,
      "calories" : 394,
      "protein" : 13.0,
      "fat" : 24.0,
      "sodium" : 606.0,
      "price" : 152.0,
      "menuItems" : [ {
        "type" : "BaseProduct",
        "title" : "Tea Cake Sandwich Cookies ",
        "rating" : 3.75,
        "calories" : 130,
        "protein" : 1.0,
        "fat" : 8.0,
        "sodium" : 38.0,
        "price" : 81.0
      }, {
        "type" : "BaseProduct",
        "title" : "Zucchini and Parmesan Skillet Cake ",
        "rating" : 3.125,
        "calories" : 127,
        "protein" : 7.0,
        "fat" : 10.0,
        "sodium" : 204.0,
        "price" : 42.0
      }, {
        "type" : "BaseProduct",
        "title" : "Corn Cakes ",
        "rating" : 4.375,
        "calories" : 137,
        "protein" : 5.0,
        "fat" : 6.0,
        "sodium" : 364.0,
        "price" : 29.0
      } ]
    }, {
      "type" : "BaseProduct",
      "title" : "Bittersweet Chocolate Irish Whiskey Cake ",
      "rating" : 4.375,
      "calories" : 369,
      "protein" : 9.0,
      "fat" : 28.0,
      "sodium" : 72.0,
      "price" : 70.0
    }, {
      "type" : "BaseProduct",
      "title" : "Whiskey Sour ",
      "rating" : 0.0,
      "calories" : 203,
      "protein" : 0.0,
      "fat" : 0.0,
      "sodium" : 13.0,
      "price" : 80.0
    }, {
      "type" : "BaseProduct",
      "title" : "Lemon-Whiskey Bundt Cake ",
      "rating" : 4.375,
      "calories" : 471,
      "protein" : 5.0,
      "fat" : 23.0,
      "sodium" : 467.0,
      "price" : 80.0
    }, {
      "type" : "BaseProduct",
      "title" : "Whiskey Flip ",
      "rating" : 5.0,
      "calories" : 286,
      "protein" : 5.0,
      "fat" : 4.0,
      "sodium" : 60.0,
      "price" : 42.0
    } ]
  }, {
    "type" : "CompositeProduct",
    "title" : "Whiskey Special",
    "rating" : 3.75,
    "calories" : 2145,
    "protein" : 65.0,
    "fat" : 104.0,
    "sodium" : 1667.0,
    "price" : 441.0,
    "menuItems" : [ {
      "type" : "BaseProduct",
      "title" : "Smoked Whiskey Wings ",
      "rating" : 5.0,
      "calories" : 422,
      "protein" : 33.0,
      "fat" : 25.0,
      "sodium" : 449.0,
      "price" : 17.0
    }, {
      "type" : "CompositeProduct",
      "title" : "Party Special",
      "rating" : 3.75,
      "calories" : 394,
      "protein" : 13.0,
      "fat" : 24.0,
      "sodium" : 606.0,
      "price" : 152.0,
      "menuItems" : [ {
        "type" : "BaseProduct",
        "title" : "Tea Cake Sandwich Cookies ",
        "rating" : 3.75,
        "calories" : 130,
        "protein" : 1.0,
        "fat" : 8.0,
        "sodium" : 38.0,
        "price" : 81.0
      }, {
        "type" : "BaseProduct",
        "title" : "Zucchini and Parmesan Skillet Cake ",
        "rating" : 3.125,
        "calories" : 127,
        "protein" : 7.0,
        "fat" : 10.0,
        "sodium" : 204.0,
        "price" : 42.0
      }, {
        "type" : "BaseProduct",
        "title" : "Corn Cakes ",
        "rating" : 4.375,
        "calories" : 137,
        "protein" : 5.0,
        "fat" : 6.0,
        "sodium" : 364.0,
        "price" : 29.0
      } ]
    }, {
      "type" : "BaseProduct",
      "title" : "Bittersweet Chocolate Irish Whiskey Cake ",
      "rating" : 4.375,
      "calories" : 369,
      "protein" : 9.0,
      "fat" : 28.0,
      "sodium" : 72.0,
      "price" : 70.0
    }, {
      "type" : "BaseProduct",
      "title" : "Whiskey Sour ",
      "rating" : 0.0,
      "calories" : 203,
      "protein" : 0.0,
      "fat" : 0.0,
      "sodium" : 13.0,
      "price" : 80.0
    }, {
      "type" : "BaseProduct",
      "title" : "Lemon-Whiskey Bundt Cake ",
      "rating" : 4.375,
      "calories" : 471,
      "protein" : 5.0,
      "fat" : 23.0,
      "sodium" : 467.0,
      "price" : 80.0
    }, {
      "type" : "BaseProduct",
      "title" : "Whiskey Flip ",
      "rating" : 5.0,
      "calories" : 286,
      "protein" : 5.0,
      "fat" : 4.0,
      "sodium" : 60.0,
      "price" : 42.0
    } ]
  } ],
  "Order{orderID=4, client=Client{firstName=Stefan lastName=Andrisca email=stefanandrisca@gmail.com password=Stefan_28}, orderDate=2021-05-17T23:38:56.911044100, totalPrice=1145.0}" : [ {
    "type" : "BaseProduct",
    "title" : "Fresh Corn Tortillas ",
    "rating" : 3.75,
    "calories" : 23,
    "protein" : 1.0,
    "fat" : 2.0,
    "sodium" : 61.0,
    "price" : 79.0
  }, {
    "type" : "BaseProduct",
    "title" : "Barbecued Shrimp ",
    "rating" : 3.75,
    "calories" : 23,
    "protein" : 4.0,
    "fat" : 0.0,
    "sodium" : 205.0,
    "price" : 71.0
  }, {
    "type" : "BaseProduct",
    "title" : "Smoked Caviar and Hummus on Pita Toasts ",
    "rating" : 5.0,
    "calories" : 23,
    "protein" : 1.0,
    "fat" : 2.0,
    "sodium" : 49.0,
    "price" : 79.0
  }, {
    "type" : "BaseProduct",
    "title" : "Spicy Pickled Shallots ",
    "rating" : 0.0,
    "calories" : 23,
    "protein" : 1.0,
    "fat" : 0.0,
    "sodium" : 162.0,
    "price" : 78.0
  }, {
    "type" : "BaseProduct",
    "title" : "Cheddar Dill Puffs ",
    "rating" : 3.75,
    "calories" : 38,
    "protein" : 1.0,
    "fat" : 3.0,
    "sodium" : 43.0,
    "price" : 74.0
  }, {
    "type" : "BaseProduct",
    "title" : "Smoked Salmon and Cucumber Squares ",
    "rating" : 4.375,
    "calories" : 38,
    "protein" : 2.0,
    "fat" : 1.0,
    "sodium" : 99.0,
    "price" : 75.0
  }, {
    "type" : "BaseProduct",
    "title" : "Chicken Satay Bites ",
    "rating" : 3.75,
    "calories" : 37,
    "protein" : 2.0,
    "fat" : 2.0,
    "sodium" : 34.0,
    "price" : 35.0
  }, {
    "type" : "BaseProduct",
    "title" : "Preserved Lemons ",
    "rating" : 5.0,
    "calories" : 37,
    "protein" : 0.0,
    "fat" : 0.0,
    "sodium" : 2505.0,
    "price" : 52.0
  }, {
    "type" : "BaseProduct",
    "title" : "Mediterranean-Style Penne ",
    "rating" : 4.375,
    "calories" : 868,
    "protein" : 24.0,
    "fat" : 42.0,
    "sodium" : 239.0,
    "price" : 76.0
  }, {
    "type" : "BaseProduct",
    "title" : "Sweet Tea with Vodka and Lemonade ",
    "rating" : 4.375,
    "calories" : 68,
    "protein" : 1.0,
    "fat" : 0.0,
    "sodium" : 10.0,
    "price" : 18.0
  }, {
    "type" : "BaseProduct",
    "title" : "Coffee-Spice Shortbread with Crystallized Ginger ",
    "rating" : 3.125,
    "calories" : 109,
    "protein" : 0.0,
    "fat" : 8.0,
    "sodium" : 55.0,
    "price" : 67.0
  }, {
    "type" : "CompositeProduct",
    "title" : "Whiskey Special",
    "rating" : 3.75,
    "calories" : 2145,
    "protein" : 65.0,
    "fat" : 104.0,
    "sodium" : 1667.0,
    "price" : 441.0,
    "menuItems" : [ {
      "type" : "BaseProduct",
      "title" : "Smoked Whiskey Wings ",
      "rating" : 5.0,
      "calories" : 422,
      "protein" : 33.0,
      "fat" : 25.0,
      "sodium" : 449.0,
      "price" : 17.0
    }, {
      "type" : "CompositeProduct",
      "title" : "Party Special",
      "rating" : 3.75,
      "calories" : 394,
      "protein" : 13.0,
      "fat" : 24.0,
      "sodium" : 606.0,
      "price" : 152.0,
      "menuItems" : [ {
        "type" : "BaseProduct",
        "title" : "Tea Cake Sandwich Cookies ",
        "rating" : 3.75,
        "calories" : 130,
        "protein" : 1.0,
        "fat" : 8.0,
        "sodium" : 38.0,
        "price" : 81.0
      }, {
        "type" : "BaseProduct",
        "title" : "Zucchini and Parmesan Skillet Cake ",
        "rating" : 3.125,
        "calories" : 127,
        "protein" : 7.0,
        "fat" : 10.0,
        "sodium" : 204.0,
        "price" : 42.0
      }, {
        "type" : "BaseProduct",
        "title" : "Corn Cakes ",
        "rating" : 4.375,
        "calories" : 137,
        "protein" : 5.0,
        "fat" : 6.0,
        "sodium" : 364.0,
        "price" : 29.0
      } ]
    }, {
      "type" : "BaseProduct",
      "title" : "Bittersweet Chocolate Irish Whiskey Cake ",
      "rating" : 4.375,
      "calories" : 369,
      "protein" : 9.0,
      "fat" : 28.0,
      "sodium" : 72.0,
      "price" : 70.0
    }, {
      "type" : "BaseProduct",
      "title" : "Whiskey Sour ",
      "rating" : 0.0,
      "calories" : 203,
      "protein" : 0.0,
      "fat" : 0.0,
      "sodium" : 13.0,
      "price" : 80.0
    }, {
      "type" : "BaseProduct",
      "title" : "Lemon-Whiskey Bundt Cake ",
      "rating" : 4.375,
      "calories" : 471,
      "protein" : 5.0,
      "fat" : 23.0,
      "sodium" : 467.0,
      "price" : 80.0
    }, {
      "type" : "BaseProduct",
      "title" : "Whiskey Flip ",
      "rating" : 5.0,
      "calories" : 286,
      "protein" : 5.0,
      "fat" : 4.0,
      "sodium" : 60.0,
      "price" : 42.0
    } ]
  } ],
  "Order{orderID=5, client=Client{firstName=Stefan lastName=Andrisca email=stefanandrisca@gmail.com password=Stefan_28}, orderDate=2021-05-18T21:46:11.222116600, totalPrice=248.0}" : [ {
    "type" : "BaseProduct",
    "title" : "Red and Green Tomato Salsa ",
    "rating" : 3.125,
    "calories" : 23,
    "protein" : 1.0,
    "fat" : 0.0,
    "sodium" : 552.0,
    "price" : 38.0
  }, {
    "type" : "BaseProduct",
    "title" : "Chicken Stock ",
    "rating" : 5.0,
    "calories" : 27,
    "protein" : 2.0,
    "fat" : 2.0,
    "sodium" : 49.0,
    "price" : 64.0
  }, {
    "type" : "BaseProduct",
    "title" : "Basic Barbecue Rub ",
    "rating" : 3.75,
    "calories" : 39,
    "protein" : 1.0,
    "fat" : 1.0,
    "sodium" : 2295.0,
    "price" : 73.0
  }, {
    "type" : "BaseProduct",
    "title" : "Basic Barbecue Rub ",
    "rating" : 3.75,
    "calories" : 39,
    "protein" : 1.0,
    "fat" : 1.0,
    "sodium" : 2295.0,
    "price" : 73.0
  } ],
  "Order{orderID=6, client=Client{firstName=Matei lastName=Schnell email=matei_rapidu@hotmail.com password=brbrladusmani_P0}, orderDate=2021-05-19T21:17:10.657966400, totalPrice=175.0}" : [ {
    "type" : "BaseProduct",
    "title" : "Banana-Rum Ice Cream ",
    "rating" : 3.125,
    "calories" : 236,
    "protein" : 4.0,
    "fat" : 13.0,
    "sodium" : 27.0,
    "price" : 25.0
  }, {
    "type" : "BaseProduct",
    "title" : "Turkey Burritos with Salsa and Cilantro ",
    "rating" : 4.375,
    "calories" : 551,
    "protein" : 28.0,
    "fat" : 46.0,
    "sodium" : 1314.0,
    "price" : 21.0
  }, {
    "type" : "BaseProduct",
    "title" : "Spicy Beef Burritos ",
    "rating" : 4.375,
    "calories" : 589,
    "protein" : 6.0,
    "fat" : 35.0,
    "sodium" : 211.0,
    "price" : 78.0
  }, {
    "type" : "BaseProduct",
    "title" : "Pat's Chicken with Peaches and Jalapenos ",
    "rating" : 3.75,
    "calories" : 355,
    "protein" : 30.0,
    "fat" : 16.0,
    "sodium" : 88.0,
    "price" : 51.0
  } ]
}